digraph lruexact {

	// otawa processor

	// lrupreanalysis processor
	DU_CATEGORY_FEATURE[color="red",shape=record,label="{eh_em::DU_CATEGORY_FEATURE|eh_em::DU_CATEGORY}"]

	// lruexact processor
	DefaultClassificationBuilder[color="green",shape=oval,label="DefaultClassificationBuilder"]
	ClassificationDisplayer[color="green",shape=oval,label="ClassificationDisplayer"]
	MayMustClassificationBuilder[color="green",shape=oval,label="MayMustClassificationBuilder"]
	RefinementCatBuilder[color="green",shape=oval,label="RefinementCatBuilder"]
	EdgeEventBuilder[color="green",shape=oval,label="EdgeEventBuilder"]

	// lruzdd processor
	lruzddClassificationBuilder[color="red",shape="oval",label="lruzdd::ClassificationBuilder"]

	// otawa features
	CONFIGURATION[color="green",shape=record,label="{Configuration|CLASSIFICATION_TO_FILE\nCLASSIFICATION_PATH}"]
	ACCESSES_FEATURE[color="red",shape=record,label="{icache::ACCESSES_FEATURE|ACCESSES}"]
	icat3CATEGORY_FEATURE[color="red",shape=record,label="{icat3::CATEGORY_FEATURE|CATEGORY}"]
	LBLOCKS_FEATURE[color="red",shape=record,label="{icat3::LBLOCKS_FEATURE|LBLOCK\nLBLOCKS}"]
	COLLECTED_CFG_FEATURE[color="red",shape=record,label="{icat3::COLLECTED_CFG_FEATURE|ENTRY_CFG\nINVOLVED_CFGS}"]
	MEMORY_FEATURE[color="red",shape=record,label="{hard::MEMORY_FEATURE|hard::MEMORY}"]
	EVENTS_FEATURE[color="red",shape=record,label="{etime::EVENTS_FEATURE|etime::EVENTS}"]


	// lruexact features
	LRU_CLASSIFICATION_FEATURE[color="green",shape=record,label="{LRU_CLASSIFICATION_FEATURE|EXACT_CATEGORY}"]
	REFINEMENT_CATEGORY_FEATURE[color="green",shape=record,label="{REFINEMENT_CATEGORY_FEATURE|REFINEMENT_CATEGORY}"]



	// lruexact dependencies
	ACCESSES_FEATURE -> DefaultClassificationBuilder;
	DefaultClassificationBuilder -> LRU_CLASSIFICATION_FEATURE;

	LRU_CLASSIFICATION_FEATURE -> ClassificationDisplayer;

	ACCESSES_FEATURE -> MayMustClassificationBuilder;
	icat3CATEGORY_FEATURE -> MayMustClassificationBuilder;
	MayMustClassificationBuilder -> LRU_CLASSIFICATION_FEATURE;

	MEMORY_FEATURE -> EdgeEventBuilder;
	LBLOCKS_FEATURE -> EdgeEventBuilder;
	COLLECTED_CFG_FEATURE -> EdgeEventBuilder;
	LRU_CLASSIFICATION_FEATURE -> EdgeEventBuilder;
	EdgeEventBuilder -> EVENTS_FEATURE;

	DU_CATEGORY_FEATURE -> RefinementCatBuilder [style="dashed"];
	icat3CATEGORY_FEATURE -> RefinementCatBuilder [style="dashed"];
	RefinementCatBuilder -> REFINEMENT_CATEGORY_FEATURE;

	// lruzdd dependencies
	lruzddClassificationBuilder -> LRU_CLASSIFICATION_FEATURE [style="dashed"];
	REFINEMENT_CATEGORY_FEATURE -> lruzddClassificationBuilder;
}
